('C:\\Python\\ClassLink\\build\\ClassLink\\ClassLink.pkg',
 {'BINARY': True,
  'DATA': True,
  'EXECUTABLE': True,
  'EXTENSION': True,
  'PYMODULE': True,
  'PYSOURCE': True,
  'PYZ': False,
  'SPLASH': True,
  'SYMLINK': False},
 [('pyi-contents-directory _internal', '', 'OPTION'),
  ('PYZ-00.pyz', 'C:\\Python\\ClassLink\\build\\ClassLink\\PYZ-00.pyz', 'PYZ'),
  ('struct',
   'C:\\Python\\ClassLink\\build\\ClassLink\\localpycs\\struct.pyc',
   'PYMODULE'),
  ('pyimod01_archive',
   'C:\\Python\\ClassLink\\build\\ClassLink\\localpycs\\pyimod01_archive.pyc',
   'PYMODULE'),
  ('pyimod02_importers',
   'C:\\Python\\ClassLink\\build\\ClassLink\\localpycs\\pyimod02_importers.pyc',
   'PYMODULE'),
  ('pyimod03_ctypes',
   'C:\\Python\\ClassLink\\build\\ClassLink\\localpycs\\pyimod03_ctypes.pyc',
   'PYMODULE'),
  ('pyimod04_pywin32',
   'C:\\Python\\ClassLink\\build\\ClassLink\\localpycs\\pyimod04_pywin32.pyc',
   'PYMODULE'),
  ('pyiboot01_bootstrap',
   'C:\\Users\\kenaono\\AppData\\Local\\Programs\\Python\\Python310\\lib\\site-packages\\PyInstaller\\loader\\pyiboot01_bootstrap.py',
   'PYSOURCE'),
  ('pyi_rth_inspect',
   'C:\\Users\\kenaono\\AppData\\Local\\Programs\\Python\\Python310\\Lib\\site-packages\\PyInstaller\\hooks\\rthooks\\pyi_rth_inspect.py',
   'PYSOURCE'),
  ('pyi_rth_pkgutil',
   'C:\\Users\\kenaono\\AppData\\Local\\Programs\\Python\\Python310\\Lib\\site-packages\\PyInstaller\\hooks\\rthooks\\pyi_rth_pkgutil.py',
   'PYSOURCE'),
  ('pyi_rth_pkgres',
   'C:\\Users\\kenaono\\AppData\\Local\\Programs\\Python\\Python310\\Lib\\site-packages\\PyInstaller\\hooks\\rthooks\\pyi_rth_pkgres.py',
   'PYSOURCE'),
  ('pyi_rth_multiprocessing',
   'C:\\Users\\kenaono\\AppData\\Local\\Programs\\Python\\Python310\\Lib\\site-packages\\PyInstaller\\hooks\\rthooks\\pyi_rth_multiprocessing.py',
   'PYSOURCE'),
  ('pyi_rth_setuptools',
   'C:\\Users\\kenaono\\AppData\\Local\\Programs\\Python\\Python310\\Lib\\site-packages\\PyInstaller\\hooks\\rthooks\\pyi_rth_setuptools.py',
   'PYSOURCE'),
  ('pyi_rth__tkinter',
   'C:\\Users\\kenaono\\AppData\\Local\\Programs\\Python\\Python310\\Lib\\site-packages\\PyInstaller\\hooks\\rthooks\\pyi_rth__tkinter.py',
   'PYSOURCE'),
  ('ClassLink', 'C:\\Python\\ClassLink\\ClassLink.py', 'PYSOURCE')],
 'python310.dll',
 True,
 False,
 False,
 [],
 None,
 None,
 None)
